<?xml version="1.0" encoding="UTF-8"?>
<!--<?xml-stylesheet type="text/css" href="../LCARS.css" ?>-->
<svg width="208.8mm" height="124.58mm" version="1.1" viewBox="0 0 208.80388 124.57642" xmlns="http://www.w3.org/2000/svg" xmlns:cc="http://creativecommons.org/ns#" xmlns:dc="http://purl.org/dc/elements/1.1/" xmlns:rdf="http://www.w3.org/1999/02/22-rdf-syntax-ns#">
<metadata>
<rdf:RDF>
<cc:Work rdf:about="">
<dc:format>image/svg+xml</dc:format>
<dc:type rdf:resource="http://purl.org/dc/dcmitype/StillImage"/>
<dc:title/>
</cc:Work>
</rdf:RDF>
</metadata>
<g transform="translate(-3.6993 -44.301)">
<g transform="matrix(.26458 0 0 .26458 -37.109 40.139)">
<path class="cls-2" d="m154.66 94.229v-18.5c0-33.137 26.863-60 60-60h264.78v35.81l-87.584-0.014-0.017-17.446h-111.16c-16.569 0-30 13.432-30 30v30.15z" fill="#45a9b1"/>
<!--
<g xmlns="http://www.w3.org/2000/svg" style="&#10;    /* display: none; */&#10;"><rect xmlns="http://www.w3.org/2000/svg" class="cls-3" x="154.66" y="98.229" width="96.35" height="18.26" fill="#4a7383" style="&#10;    /* outline: 1px solid yellow; */&#10;    /* content: &quot;HI&quot;; */&#10;"/>
<text xmlns="http://www.w3.org/2000/svg" x="158.66" y="109.229" width="100" style="&#10;    /* outline: 1px solid red; */&#10;    dominant-baseline: middle;&#10;    /* text-anchor: middle; */&#10;    font-size: 12px;&#10;    fill: white;&#10;">MODE SELECT</text></g> -->
<rect class="cls-4" x="492.63" y="473.15" width="111.43" height="13.16" fill="#8ec1be"/>
<path class="cls-2" d="m943.42 456.31c0 16.569-13.432 30-30 30h-304.47v-13.16h201.88c6.627 0 12-5.373 12-12v-19.85h103.47c2.209 0 4-1.791 4-4l-0.09-346.22c0-2.209-1.791-4-4-4h-103.38v-11.51c0-13.255-10.746-24-24-24h-40.24v-35.84h124.83c33.14 0 60 36.3 60 69.44z" fill="#45a9b1"/>
<path class="cls-14" d="m479.02 477.81h-207.41c-16.284-0.022-29.478-13.217-29.5-29.5l0.42-60.13h-1l-0.42 60.13c0.016 16.838 13.662 30.484 30.5 30.5h207.41zm-227.46-89.63-0.41 54.85c0 16.569 13.431 30 30 30h197.87v13.54h-254.78c-38.66 0-70-31.34-70-70l0.42-28.39zm-51.16 22.22c-21.393-8e-3 -34.772 23.146-24.082 41.676 10.69 18.531 37.43 18.541 48.133 0.018 2.443-4.227 3.729-9.022 3.729-13.904 0-15.344-12.436-27.784-27.78-27.79z" fill="#0a3551"/>
<circle class="cls-3" cx="200.36" cy="438.29" r="26.5" fill="#4a7383"/>
<circle class="cls-1" cx="200.36" cy="438.29" r="25.35" fill="#071322"/>
<path class="cls-3" d="m209.09 434.82c1.522 5.103 2.616 10.325 3.27 15.61 0 0.38-0.46 0.52-0.63 0.1-0.951-1.613-2.013-3.156-3.18-4.62-1.42-1.853-3.078-3.51-4.93-4.93-0.145-0.033-0.295-0.033-0.44 0-0.92 0.31-4.42 3.86-7.25 6.85-2.07 2.19-5.06 5.57-6.14 7-0.08 0.11-0.44 0.14-0.44-0.17 0.263-7.637 1.711-15.187 4.29-22.38 1.674-4.782 3.992-9.314 6.89-13.47 0.4-0.57 0.86-0.47 1.22 0.08 3.238 4.908 5.713 10.279 7.34 15.93zm-5.43 2.72c0.224-0.09 0.475-0.09 0.7 0 1.26 0.53 3.81 3.5 3.84 3.54s0.23 0.05 0.2-0.08c-0.792-3.317-1.753-6.591-2.88-9.81-1.081-2.962-2.419-5.823-4-8.55-0.33-0.59-0.41-0.66-0.84 0-0.93 1.57-2.28 3.51-5.08 11.15-1.561 4.587-2.666 9.317-3.3 14.12 0 0.14 0.09 0.19 0.18 0.08 2.35-2.93 9.76-9.74 11.18-10.45zm-5.17 3.19c1.91-1.69 4-3.37 4-3.37v-10.78c-0.159-0.456-0.363-0.895-0.61-1.31-0.33-0.61-0.61-1.07-0.75-1.3-0.043-0.073-0.148-0.073-0.19 0-1.513 2.594-2.775 5.327-3.77 8.16-1.693 4.179-2.891 8.542-3.57 13-0.012 0.068 0.055 0.124 0.12 0.099 0.016-5e-3 0.029-0.016 0.04-0.029 0.58-0.59 2.19-2.23 4.73-4.47zm5-11.67v7.57c0.247-0.102 0.512-0.153 0.78-0.15 0.78 0 1.8 1 2.22 1.43 0.06 0.05 0.18 0 0.16-0.09-0.14-0.62-0.6-2.16-1.15-3.87-0.505-1.686-1.147-3.328-1.92-4.91l-0.07 0.02z" fill="#4a7383"/>
<path class="cls-3" d="m182.69 441.37c0.744 4.114 2.897 7.841 6.09 10.54v1c-3.652-2.879-6.11-7.007-6.9-11.59z" fill="#4a7383"/>
<path class="cls-3" d="m181.6 438.76v-0.57c0.016-9.923 7.727-18.133 17.63-18.77l-0.56 0.87c-9.191 0.898-16.212 8.605-16.25 17.84z" fill="#4a7383"/>
<path class="cls-3" d="m191.44 453.78c2.734 1.584 5.84 2.413 9 2.4 13.856-0.093 22.415-15.15 15.407-27.104-2.644-4.509-7.117-7.646-12.257-8.596l-0.6-0.92c14.344 1.977 21.169 18.741 12.284 30.175-5.799 7.464-16.236 9.465-24.384 4.675z" fill="#4a7383"/>
<path class="cls-1" d="m182.62 441.96c-1.68 0-2.6-0.34-2.82-1-0.29-1 0.87-2.34 3.45-4.06 3.15-1.978 6.462-3.688 9.9-5.11l0.63-0.27-0.48 1.3-0.12 0.05c-8.33 3.55-12.43 6.91-12.2 7.64 0 0 0.16 0.28 1.65 0.28 3.22 0 10.53-1.35 19-4.31 3.765-1.325 7.439-2.895 11-4.7-0.148-0.052-0.245-0.193-0.24-0.35 0-0.158 0.1-0.299 0.25-0.35 0.373-0.059 0.734-0.177 1.07-0.35 0.221-0.457 0.366-0.946 0.43-1.45 0.093-0.277 0.452-0.349 0.645-0.129 0.033 0.038 0.059 0.081 0.075 0.129 0.061 0.505 0.21 0.996 0.44 1.45 0.311 0.171 0.649 0.289 1 0.35 0.269 0.114 0.314 0.477 0.081 0.653-0.025 0.019-0.052 0.035-0.081 0.047-0.352 0.071-0.69 0.199-1 0.38-0.232 0.471-0.381 0.979-0.44 1.5-0.094 0.277-0.453 0.349-0.646 0.129-0.033-0.037-0.058-0.081-0.074-0.129-0.066-0.436-0.174-0.864-0.32-1.28-3.732 1.993-7.618 3.681-11.62 5.05-7.82 2.69-15.69 4.53-19.58 4.53z" fill="#071322"/>
<path class="cls-3" d="m193.07 432.56c-7.44 3.17-12.75 6.81-12.38 8s10.09 0 21-3.84c4.03-1.401 7.954-3.092 11.74-5.06-0.233-0.08-0.47-0.146-0.71-0.2-0.058-0.021-0.071-0.097-0.024-0.137 7e-3 -5e-3 0.015-0.01 0.024-0.013 0.429-0.064 0.845-0.199 1.23-0.4 0.262-0.504 0.437-1.048 0.52-1.61 0-0.054 0.058-0.087 0.105-0.061 0.021 0.013 0.035 0.036 0.035 0.061 0.083 0.562 0.259 1.106 0.52 1.61 0.364 0.206 0.759 0.351 1.17 0.43 0.057 0.022 0.07 0.097 0.023 0.137-7e-3 5e-3 -0.015 0.01-0.023 0.013-0.413 0.088-0.808 0.244-1.17 0.46-0.259 0.519-0.431 1.076-0.51 1.65-0.022 0.058-0.098 0.071-0.137 0.023-6e-3 -7e-3 -0.01-0.014-0.013-0.023-0.085-0.587-0.26-1.157-0.52-1.69-3.797 2.048-7.757 3.778-11.84 5.17-10.2 3.55-21.38 5.87-22 3.73-0.52-1.7 5-5.31 13.17-8.81z" fill="#4a7383"/>
<circle class="cls-15" cx="206.91" cy="423.53" r=".41" fill="#6e8f9c"/>
<circle class="cls-15" cx="210.16" cy="426.61" r=".31" fill="#6e8f9c"/>
<circle class="cls-15" cx="211.92" cy="428.46" r=".46" fill="#6e8f9c"/>
<circle class="cls-15" cx="208.66" cy="428.81" r=".4" fill="#6e8f9c"/>
<circle class="cls-15" cx="209.99" cy="429.31" r=".33" fill="#6e8f9c"/>
<circle class="cls-15" cx="210.99" cy="430.34" r=".4" fill="#6e8f9c"/>
<circle class="cls-15" cx="212.66" cy="430.64" r=".27" fill="#6e8f9c"/>
<circle class="cls-15" cx="210.25" cy="432.27" r=".41" fill="#6e8f9c"/>
<circle class="cls-15" cx="208.84" cy="431.03" r=".26" fill="#6e8f9c"/>
<circle class="cls-15" cx="212.15" cy="434.04" r=".26" fill="#6e8f9c"/>
<circle class="cls-15" cx="210.85" cy="436.03" r=".47" fill="#6e8f9c"/>
<circle class="cls-15" cx="214.59" cy="435.33" r=".31" fill="#6e8f9c"/>
<circle class="cls-15" cx="216.59" cy="434.41" r=".31" fill="#6e8f9c"/>
<circle class="cls-15" cx="213.54" cy="438.71" r=".43" fill="#6e8f9c"/>
<circle class="cls-15" cx="214.48" cy="442.37" r=".46" fill="#6e8f9c"/>
<circle class="cls-15" cx="215.69" cy="444.37" r=".31" fill="#6e8f9c"/>
<circle class="cls-15" cx="213.22" cy="446.47" r=".49" fill="#6e8f9c"/>
<circle class="cls-15" cx="203.26" cy="452.92" r=".46" fill="#6e8f9c"/>
<circle class="cls-15" cx="202.48" cy="449.53" r=".43" fill="#6e8f9c"/>
<circle class="cls-15" cx="201.49" cy="448.66" r=".31" fill="#6e8f9c"/>
<circle class="cls-15" cx="204.44" cy="448.39" r=".4" fill="#6e8f9c"/>
<circle class="cls-15" cx="203.41" cy="446.89" r=".24" fill="#6e8f9c"/>
<circle class="cls-15" cx="203.96" cy="445.9" r=".36" fill="#6e8f9c"/>
<circle class="cls-15" cx="202.68" cy="445.43" r=".31" fill="#6e8f9c"/>
<circle class="cls-15" cx="188.42" cy="436.76" r=".46" fill="#6e8f9c"/>
<circle class="cls-15" cx="186.32" cy="434.1" r=".43" fill="#6e8f9c"/>
<circle class="cls-15" cx="191.88" cy="429.6" r=".34" fill="#6e8f9c"/>
<circle class="cls-15" cx="193.03" cy="428.59" r=".44" fill="#6e8f9c"/>
<circle class="cls-15" cx="194.69" cy="424.41" r=".4" fill="#6e8f9c"/>
<circle class="cls-15" cx="187.41" cy="446.14" r=".5" fill="#6e8f9c"/>
<path class="cls-3" d="m179.86 438.26h-0.4l0.17-2.76h-0.39l-0.73 2.41c-0.052 0.18-0.224 0.297-0.41 0.28h-0.33c-0.108-9e-3 -0.209-0.059-0.28-0.14-0.073-0.078-0.109-0.184-0.1-0.29l0.18-2.77h0.41l-0.18 2.77h0.33l0.72-2.4c0.055-0.177 0.225-0.293 0.41-0.28h0.41c0.221 0.016 0.387 0.209 0.37 0.43z" fill="#4a7383"/>
<polygon class="cls-3" points="177.75 433.9 178.63 430.55 179.02 430.65 178.64 432.14 180.66 432.65 180.56 433.05 178.54 432.54 178.15 434.01" fill="#4a7383"/>
<polygon class="cls-3" points="197.98 415.22 201.45 415.19 201.45 415.6 199.91 415.62 199.94 417.7 199.53 417.71 199.5 415.63 197.99 415.63" fill="#4a7383"/>
<path class="cls-3" d="m185.38 424.25-0.3 0.29-1.43-1.52c-0.167-0.161-0.167-0.429 0-0.59l2-1.88 0.28 0.3-1.89 1.79c-0.047 0.047-0.047 0.123 0 0.17l0.31 0.33 2-1.88 0.28 0.3-2 1.88z" fill="#4a7383"/>
<path class="cls-3" d="m190.66 419.56-0.64-1.52c-0.09-0.218 0.012-0.468 0.23-0.56l2.51-1.06 0.16 0.38-2.4 1c-0.063 0.031-0.093 0.104-0.07 0.17l0.2 0.48 2.52-1.07 0.16 0.38-2.52 1.06 0.21 0.5c0.022 0.049 0.08 0.071 0.13 0.05l2.43-1 0.16 0.38-2.51 1.06c-0.227 0.089-0.482-0.023-0.57-0.25z" fill="#4a7383"/>
<path class="cls-3" d="m194.24 418.11-0.35-1.62c-0.05-0.226 0.093-0.45 0.32-0.5l2.67-0.58 0.09 0.4-2.55 0.55c-0.06 0-0.12 0.09-0.1 0.15l0.11 0.51 2.67-0.58 0.09 0.4-2.67 0.58 0.11 0.52c0.01 0.056 0.064 0.092 0.12 0.08l2.58-0.57 0.09 0.4-2.67 0.59c-0.232 0.05-0.46-0.098-0.51-0.33z" fill="#4a7383"/>
<path class="cls-3" d="m190.45 420.21-2.32 1.54c-0.171 0.119-0.406 0.074-0.52-0.1l-1.19-1.74 0.34-0.23 1.1 1.65c0.048 0.042 0.121 0.042 0.17 0l2.19-1.42z" fill="#4a7383"/>
<path class="cls-3" d="m180.28 430.11-0.66-0.53c-0.046-0.055-0.046-0.135 0-0.19l0.53-1.17c0.032-0.062 0.1-0.098 0.17-0.09l0.84 0.15zm1.25-1.75 0.74 0.13 0.17-0.37-2.21-0.42c-0.182-0.031-0.362 0.063-0.44 0.23l-0.64 1.42c-0.078 0.166-0.033 0.364 0.11 0.48l1.77 1.39 0.17-0.37-0.59-0.47z" fill="#4a7383"/>
<path class="cls-3" d="m184.68 424.91-0.25 0.35h-1.23l-1 1.48 0.84 0.59-0.23 0.34-1.71-1.19c-0.19-0.131-0.239-0.389-0.11-0.58l1.38-2c0.125-0.171 0.362-0.215 0.54-0.1l0.58 0.4c0.181 0.119 0.226 0.364 0.1 0.54l-0.09 0.13zm-2.06-0.71-1.25 1.8c-0.047 0.047-0.047 0.123 0 0.17l0.44 0.31 1.32-1.9c0.037-0.035 0.037-0.094 0-0.13l-0.4-0.27c-0.025-0.035-0.074-0.044-0.11-0.02z" fill="#4a7383"/>
<path class="cls-3" d="m210.55 419.91-2.07-1c-0.055-0.023-0.081-0.085-0.06-0.14l0.64-1.31c0.042-0.062 0.123-0.083 0.19-0.05l2 1c0.074 0.036 0.109 0.123 0.08 0.2l-0.58 1.3c-0.057 0.051-0.143 0.051-0.2 0zm1-1.82-2.3-1.11c-0.216-0.118-0.485-0.037-0.6 0.18l-0.7 1.49c-0.098 0.232 9e-3 0.499 0.24 0.6l2.29 1.11c0.207 0.112 0.465 0.036 0.58-0.17l0.74-1.53c0.088-0.21 1e-3 -0.453-0.2-0.56z" fill="#4a7383"/>
<path class="cls-3" d="m207.3 418.41-2.57-0.66c-0.053-0.014-0.087-0.066-0.08-0.12l0.37-1.42c0.023-0.065 0.094-0.1 0.16-0.08l2.54 0.65 0.1-0.4-2.66-0.68c-0.225-0.063-0.457 0.073-0.51 0.3l-0.42 1.6c-0.063 0.23 0.077 0.466 0.31 0.52l2.66 0.69z" fill="#4a7383"/>
<path class="cls-3" d="m220.8 437.36-0.12-2.45c-7e-3 -0.076 0.045-0.145 0.12-0.16l2.25-0.11c0.075 5e-3 0.135 0.065 0.14 0.14l0.12 2.43c0 0.071-0.021 0.141-0.06 0.2l-0.56 0.69c-0.045 0.049-0.105 0.081-0.17 0.09h-0.83c-0.068 4e-3 -0.134-0.021-0.18-0.07l-0.62-0.63c-0.04-0.036-0.071-0.08-0.09-0.13zm0.31-2 0.09 1.85c-9e-3 0.033-9e-3 0.067 0 0.1l0.44 0.45c0.029 9e-3 0.06 9e-3 0.09 0h0.6c0.031-7e-3 0.06-0.025 0.08-0.05l0.4-0.49c0.01-0.036 0.01-0.074 0-0.11l-0.09-1.84c6e-3 -0.074-0.056-0.136-0.13-0.13l-1.44 0.07c-0.045 0.036-0.062 0.097-0.04 0.15z" fill="#4a7383"/>
<path class="cls-3" d="m219.04 427.32 0.82-0.21c0.071-0.014 0.143 0.018 0.18 0.08l0.61 1.13c0.038 0.057 0.038 0.133 0 0.19l-0.63 0.58zm0.64 2-0.55 0.51 0.2 0.37 1.62-1.47c0.137-0.125 0.17-0.328 0.08-0.49l-0.7-1.33c-0.087-0.161-0.274-0.24-0.45-0.19l-2.18 0.56 0.2 0.36 0.73-0.18z" fill="#4a7383"/>
<path class="cls-3" d="m220.4 433.8-0.08-0.3c-0.026-0.068-0.026-0.142 0-0.21l1.3-2.44s0-0.2-0.07-0.19l-1.89 0.53-0.11-0.39 2.15-0.59c0.144-0.044 0.296 0.043 0.33 0.19l0.07 0.21c0.03 0.077 0.03 0.163 0 0.24l-1.28 2.45s0 0.21 0.07 0.19l1.89-0.53 0.11 0.4-2.18 0.61c-0.133 0.039-0.272-0.037-0.31-0.17z" fill="#4a7383"/>
<path class="cls-3" d="m213.2 422.27-0.38-0.29c-0.08-0.061-0.109-0.167-0.07-0.26l0.71-1.79c0.039-0.042 0.039-0.108 0-0.15l-0.18-0.15c-0.052-0.044-0.128-0.044-0.18 0l-1.22 1.56-0.32-0.25 1.4-1.79c0.093-0.094 0.246-0.094 0.34 0l0.59 0.46c0.089 0.073 0.114 0.199 0.06 0.3l-0.75 1.87 0.16 0.12 1.59-1.21c0.085-0.065 0.204-0.065 0.29 0l0.59 0.46c0.101 0.095 0.101 0.255 0 0.35l-1.39 1.79-0.33-0.26 1.22-1.55c0.054-0.048 0.054-0.132 0-0.18l-0.18-0.15c-0.049-0.031-0.111-0.031-0.16 0l-1.57 1.13c-0.071 0.034-0.153 0.031-0.22-0.01z" fill="#4a7383"/>
<path class="cls-3" d="m216.35 425.46-0.3-0.38c-0.06-0.076-0.06-0.184 0-0.26l1.09-1.59c0.04-0.045 0.04-0.114 0-0.16l-0.19-0.16c-0.052-0.044-0.128-0.044-0.18 0l-1.53 1.25-0.26-0.32 1.76-1.43c0.093-0.094 0.246-0.094 0.34 0l0.48 0.58c0.059 0.088 0.059 0.202 0 0.29l-1.1 1.63 0.12 0.15 1.85-0.78c0.101-0.043 0.219-0.015 0.29 0.07l0.47 0.58c0.1 0.091 0.1 0.249 0 0.34l-1.76 1.44-0.25-0.32 1.53-1.25c0.043-0.052 0.043-0.128 0-0.18l-0.15-0.18c-0.045-0.032-0.105-0.032-0.15 0l-1.78 0.75c-0.099 0.045-0.215 0.016-0.28-0.07z" fill="#4a7383"/>
<path class="cls-3" d="m196.75 460.05 0.19-0.51c0.019-0.043 0.062-0.07 0.11-0.07l0.77 0.1c0.046 8e-3 0.082 0.044 0.09 0.09l0.06 0.54zm1.25 0.42 0.06 0.48h0.24l-0.15-1.44c-9e-3 -0.114-0.097-0.206-0.21-0.22l-0.94-0.12c-0.116-0.011-0.224 0.06-0.26 0.17l-0.5 1.36h0.24l0.18-0.46z" fill="#4a7383"/>
<path class="cls-3" d="m217.38 452.55-0.33-0.44c-0.02-0.038-0.02-0.082 0-0.12l0.5-0.61c0.036-0.024 0.083-0.024 0.12 0l0.49 0.23zm1-0.84 0.44 0.21 0.16-0.19-1.3-0.64c-0.102-0.055-0.228-0.029-0.3 0.06l-0.6 0.74c-0.072 0.091-0.072 0.219 0 0.31l0.88 1.14 0.16-0.19-0.29-0.39z" fill="#4a7383"/>
<path class="cls-3" d="m203.81 460.6-1.32 0.13c-0.035 0.015-0.074-0.012-0.07-0.05l-0.09-0.92c-1e-3 -0.046 0.034-0.085 0.08-0.09l1.29-0.13c0.049-6e-3 0.094 0.03 0.1 0.08l0.09 0.89c6e-3 0.048-0.032 0.09-0.08 0.09zm0-1.32-1.47 0.14c-0.146 0.016-0.252 0.144-0.24 0.29l0.1 1c0.02 0.148 0.15 0.257 0.3 0.25l1.47-0.15c0.139-0.016 0.241-0.14 0.23-0.28l-0.11-1.07c-0.034-0.142-0.182-0.225-0.32-0.18z" fill="#4a7383"/>
<path class="cls-3" d="m210.01 458.71-1.19 0.57c-0.024 0.027-0.066 0.027-0.09 0l-0.39-0.84c-0.03-0.031-0.03-0.079 0-0.11l1.17-0.56c0.034-0.03 0.085-0.03 0.12 0l0.38 0.81c0.05 0.02 0.059 0.087 0.017 0.12-5e-3 4e-3 -0.011 8e-3 -0.017 0.01zm-0.48-1.23-1.34 0.63c-0.132 0.067-0.186 0.227-0.12 0.36l0.45 0.94c0.059 0.14 0.225 0.2 0.36 0.13l1.33-0.63c0.129-0.059 0.183-0.213 0.12-0.34l-0.46-1c-0.07-0.118-0.221-0.158-0.34-0.09z" fill="#4a7383"/>
<line class="cls-3" x1="220.66" x2="221.41" y1="448.73" y2="447.21" fill="#4a7383"/>
<path class="cls-3" d="m220.47 448.78-0.94-0.47c-0.136-0.063-0.194-0.225-0.13-0.36l0.69-1.39 0.23 0.12-0.65 1.31c-0.027 0.036-0.027 0.085 0 0.12l0.29 0.14 0.69-1.38 0.24 0.11-0.69 1.39 0.31 0.15c0.022 0.02 0.057 0.02 0.08 0l0.66-1.33 0.24 0.11-0.69 1.39c-0.075 0.105-0.213 0.142-0.33 0.09z" fill="#4a7383"/>
<line class="cls-3" x1="191.59" x2="193.18" y1="459.17" y2="459.77" fill="#4a7383"/>
<path class="cls-3" d="m191.53 458.99 0.38-1c0.051-0.136 0.202-0.207 0.34-0.16l1.45 0.56-0.1 0.24-1.36-0.52c-0.031-0.029-0.079-0.029-0.11 0l-0.12 0.31 1.44 0.55-0.09 0.25-1.41-0.5-0.13 0.32c-0.017 0.024-0.017 0.056 0 0.08l1.39 0.53-0.09 0.25-1.44-0.56c-0.142-0.051-0.211-0.212-0.15-0.35z" fill="#4a7383"/>
<line class="cls-3" x1="187.12" x2="188.54" y1="456.69" y2="457.62" fill="#4a7383"/>
<path class="cls-3" d="m187.1 456.5 0.58-0.88c0.081-0.129 0.253-0.166 0.38-0.08l1.28 0.85-0.14 0.22-1.25-0.81c-0.037-0.024-0.084-0.024-0.12 0l-0.18 0.28 1.3 0.83-0.15 0.22-1.28-0.85-0.19 0.28c-0.027 0.024-0.027 0.066 0 0.09l1.25 0.82-0.15 0.22-1.26-0.78c-0.147-0.084-0.181-0.282-0.07-0.41z" fill="#4a7383"/>
<line class="cls-3" x1="181.19" x2="182.16" y1="450.32" y2="451.71" fill="#4a7383"/>
<path class="cls-3" d="m181.23 450.14 0.87-0.6c0.121-0.089 0.292-0.062 0.38 0.06l0.88 1.27-0.22 0.15-0.83-1.2c-0.032-0.036-0.088-0.036-0.12 0l-0.27 0.18 0.88 1.27-0.21 0.15-0.88-1.27-0.28 0.2c-0.022 0.026-0.022 0.064 0 0.09l0.85 1.22-0.21 0.15-0.89-1.27c-0.1-0.123-0.077-0.305 0.05-0.4z" fill="#4a7383"/>
<polygon class="cls-3" points="220.24 446.1 220.92 444.17 221.17 444.26 220.87 445.1 222.14 445.55 222.05 445.8 220.79 445.35 220.49 446.19" fill="#4a7383"/>
<polygon class="cls-3" points="181.18 447.2 182.09 449.02 181.86 449.14 181.46 448.35 180.26 448.95 180.14 448.71 181.34 448.11 180.94 447.31" fill="#4a7383"/>
<polygon class="cls-3" points="198.76 459.38 200.8 459.45 200.79 459.71 199.9 459.68 199.86 461.02 199.59 461.02 199.64 459.67 198.75 459.64" fill="#4a7383"/>
<path class="cls-3" d="m210.95 457.77 0.36 0.64-0.22 0.13-0.66-1.16c-0.076-0.13-0.031-0.296 0.1-0.37l1.34-0.76 0.13 0.23-1.27 0.72c-0.03 0.031-0.03 0.079 0 0.11l0.12 0.23 1.35-0.76 0.13 0.22-1.35 0.77z" fill="#4a7383"/>
<path class="cls-3" d="m185.71 454.71-0.49 0.56-0.2-0.18 0.88-1c0.107-0.099 0.272-0.099 0.38 0l1.16 1-0.17 0.2-1.1-1c-0.036-0.027-0.085-0.027-0.12 0l-0.17 0.2 1.16 1-0.17 0.2-1.17-1z" fill="#4a7383"/>
<path class="cls-3" d="m220.38 449.61-0.11 0.17c-0.022 0.043-0.063 0.073-0.11 0.08l-1.7 0.37s-0.08 0.09-0.06 0.11l1.07 0.69-0.14 0.22-1.21-0.79c-0.061-0.068-0.061-0.172 0-0.24l0.08-0.12c0.028-0.043 0.07-0.075 0.12-0.09l1.7-0.38s0.09-0.1 0.06-0.12l-1.13-0.68 0.15-0.22 1.22 0.79c0.082 0.035 0.111 0.137 0.06 0.21z" fill="#4a7383"/>
<path class="cls-3" d="m206.78 460.28h-0.2c-0.042 0.015-0.088 0.015-0.13 0l-1.45-1h-0.13l0.26 1.24-0.25 0.05-0.29-1.41c-0.019-0.091 0.039-0.18 0.13-0.2h0.15c0.048-0.019 0.102-0.019 0.15 0l1.46 0.94h0.12l-0.26-1.24 0.26-0.05 0.3 1.42c0.077 0.086 0.032 0.223-0.081 0.247-0.013 3e-3 -0.026 4e-3 -0.039 3e-3z" fill="#4a7383"/>
<path class="cls-3" d="m179.11 446.5-0.08-0.19c-0.015-0.045-0.015-0.094 0-0.14l0.72-1.57v-0.12l-1.19 0.44-0.09-0.24 1.35-0.5c0.088-0.028 0.183 0.015 0.22 0.1l0.06 0.14c0.015 0.049 0.015 0.101 0 0.15l-0.71 1.59s0 0.13 0.05 0.12l1.19-0.44 0.09 0.24-1.36 0.51c-0.085 0.078-0.223 0.035-0.248-0.078-1e-3 -4e-3 -2e-3 -8e-3 -2e-3 -0.012z" fill="#4a7383"/>
<path class="cls-3" d="m190.35 458.77-1.21-0.66c-0.03-0.031-0.03-0.079 0-0.11l0.68-1.25c0.028-0.036 0.082-0.036 0.11 0l1.21 0.65c0.037 0.024 0.065 0.059 0.08 0.1l0.15 0.5c0.014 0.042 0.014 0.088 0 0.13l-0.25 0.46c-0.018 0.036-0.051 0.062-0.09 0.07l-0.51 0.15c-0.059 0.032-0.132 0.015-0.17-0.04zm-0.86-0.76 0.92 0.5h0.06l0.36-0.1 0.18-0.33c4e-3 -0.02 4e-3 -0.04 0-0.06l-0.06-0.41-0.92-0.5c-0.028-0.028-0.073-0.028-0.1 0l-0.44 0.8c-0.024 0.029-0.024 0.071 0 0.1z" fill="#4a7383"/>
<path class="cls-3" d="m183.43 453.49-0.92-1c-0.036-0.032-0.036-0.088 0-0.12l1.06-0.95c0.034-0.03 0.085-0.03 0.12 0l0.91 1c0.017 0.035 0.017 0.076 0 0.11v0.53c-2e-3 0.042-0.02 0.081-0.05 0.11l-0.39 0.35c-0.039 0.013-0.081 0.013-0.12 0h-0.52c-0.03 0.02-0.07 0.01-0.09-0.03zm-0.56-1 0.7 0.79h0.49l0.28-0.25c9e-3 -0.015 9e-3 -0.034 0-0.05v-0.38c4e-3 -0.02 4e-3 -0.04 0-0.06l-0.7-0.78c-0.031-0.029-0.079-0.029-0.11 0l-0.68 0.6c-0.026 0.039-0.017 0.091 0.02 0.12z" fill="#4a7383"/>
<path class="cls-3" d="m195.68 460.59-0.27-0.07-0.24-0.74-1-0.25-0.17 0.63-0.25-0.07 0.33-1.29c0.039-0.143 0.186-0.228 0.33-0.19l1.35 0.35c0.128 0.039 0.206 0.169 0.18 0.3l-0.11 0.44c-0.035 0.137-0.175 0.218-0.31 0.18h-0.09zm0-1.39-1.22-0.29c-0.045-0.013-0.091 0.015-0.1 0.06l-0.09 0.33 1.28 0.34c0.021 0.015 0.049 0.015 0.07 0l0.08-0.3c0.046-0.041 0.031-0.116-0.028-0.136-7e-3 -2e-3 -0.015-4e-3 -0.022-4e-3z" fill="#4a7383"/>
<path class="cls-3" d="m179.7 443.45-1.21 0.3c-0.046 0.022-0.098-0.01-0.1-0.06l-0.33-1.29c1e-3 -0.031 0.021-0.058 0.05-0.07l1.23-0.31-0.07-0.25-1.27 0.32c-0.152 0.029-0.245 0.183-0.2 0.33l0.36 1.42c0.034 0.137 0.172 0.222 0.31 0.19l1.29-0.32z" fill="#4a7383"/>
<path class="cls-3" d="m222.56 444.18-0.25-0.06 0.46-1.72-0.24-0.06-0.77 1.42c-0.059 0.1-0.178 0.15-0.29 0.12l-0.21-0.05c-0.142-0.034-0.225-0.181-0.18-0.32l0.47-1.72 0.25 0.07-0.47 1.72 0.21 0.05 0.76-1.42c0.06-0.105 0.184-0.154 0.3-0.12l0.25 0.06c0.134 0.043 0.213 0.183 0.18 0.32z" fill="#4a7383"/>
<path class="cls-3" d="m214.95 454.66c0.093 0.09 0.093 0.24 0 0.33l-1.19 1 0.46 0.58-0.2 0.16-0.84-1c-0.099-0.107-0.099-0.273 0-0.38l1.18-0.95c0.093-0.094 0.246-0.094 0.34 0zm-0.5-0.07-1 0.83c-0.031 0.034-0.031 0.086 0 0.12l0.16 0.2 1.09-0.88c0.029-0.031 0.029-0.079 0-0.11l-0.12-0.15c-0.032-0.033-0.084-0.038-0.12-0.01z" fill="#4a7383"/>
<path class="cls-3" d="m217.14 453.58-1.12 1.08h-0.08l-0.88-0.91-0.19 0.18 0.91 1c0.108 0.105 0.281 0.105 0.39 0l1.15-1.13z" fill="#4a7383"/>
<rect class="cls-3" transform="rotate(-1.21 690.93 -6598.1)" x="52.35" y="447.52" width=".26" height="1.62" fill="#4a7383"/>
<rect class="cls-3" transform="rotate(-24.82 132.76 102.53)" x="30.44" y="434.94" width="1.62" height=".26" fill="#4a7383"/>
<circle class="cls-16" cx="200.36" cy="438.29" r="26.5" fill="none" stroke="#071322" stroke-miterlimit="10" stroke-width=".54px"/>
</g>
</g>
</svg>
