<svg viewBox="0 0 500 500" xmlns="http://www.w3.org/2000/svg">
  <defs></defs>
  <path class="cls-2" d="M 154.656 94.229 L 154.656 75.729 C 154.656 42.592 181.519 15.729 214.656 15.729 L 479.436 15.729 L 479.436 51.539 L 391.852 51.525 L 391.835 34.079 L 280.676 34.079 C 264.107 34.079 250.676 47.511 250.676 64.079 L 250.676 94.229 L 154.656 94.229 Z" style="fill: rgb(69, 169, 177);"></path>
  <rect class="cls-3" x="154.656" y="98.229" width="96.35" height="17.26" style="fill: rgb(74, 115, 131);"></rect>
  <rect class="cls-4" x="492.626" y="473.149" width="111.43" height="13.16" style="fill: rgb(142, 193, 190);"></rect>
  <path class="cls-2" d="M 943.416 456.309 C 943.416 472.878 929.984 486.309 913.416 486.309 L 608.946 486.309 L 608.946 473.149 L 810.826 473.149 C 817.453 473.149 822.826 467.776 822.826 461.149 L 822.826 441.299 L 926.296 441.299 C 928.505 441.299 930.296 439.508 930.296 437.299 L 930.206 91.079 C 930.206 88.87 928.415 87.079 926.206 87.079 L 822.826 87.079 L 822.826 75.569 C 822.826 62.314 812.08 51.569 798.826 51.569 L 758.586 51.569 L 758.586 15.729 L 883.416 15.729 C 916.556 15.729 943.416 52.029 943.416 85.169 Z" style="fill: rgb(69, 169, 177);"></path>
  <path class="cls-14" d="M 479.016 477.809 L 271.606 477.809 C 255.322 477.787 242.128 464.592 242.106 448.309 L 242.526 388.179 L 241.526 388.179 L 241.106 448.309 C 241.122 465.147 254.768 478.793 271.606 478.809 L 479.016 478.809 Z M 251.556 388.179 L 251.146 443.029 C 251.146 459.598 264.577 473.029 281.146 473.029 L 479.016 473.029 L 479.016 486.569 L 224.236 486.569 C 185.576 486.569 154.236 455.229 154.236 416.569 L 154.656 388.179 Z M 200.396 410.399 C 179.003 410.391 165.624 433.545 176.314 452.075 C 187.004 470.606 213.744 470.616 224.447 452.093 C 226.89 447.866 228.176 443.071 228.176 438.189 C 228.176 422.845 215.74 410.405 200.396 410.399 Z" style="fill: rgb(10, 53, 81);"></path>
  <circle class="cls-3" cx="200.356" cy="438.289" r="26.5" style="fill: rgb(74, 115, 131);"></circle>
  <circle class="cls-1" cx="200.356" cy="438.289" r="25.35" style="fill: rgb(7, 19, 34);"></circle>
  <path class="cls-3" d="M 209.086 434.819 C 210.608 439.922 211.702 445.144 212.356 450.429 C 212.356 450.809 211.896 450.949 211.726 450.529 C 210.775 448.916 209.713 447.373 208.546 445.909 C 207.126 444.056 205.468 442.399 203.616 440.979 C 203.471 440.946 203.321 440.946 203.176 440.979 C 202.256 441.289 198.756 444.839 195.926 447.829 C 193.856 450.019 190.866 453.399 189.786 454.829 C 189.706 454.939 189.346 454.969 189.346 454.659 C 189.609 447.022 191.057 439.472 193.636 432.279 C 195.31 427.497 197.628 422.965 200.526 418.809 C 200.926 418.239 201.386 418.339 201.746 418.889 C 204.984 423.797 207.459 429.168 209.086 434.819 Z M 203.656 437.539 C 203.88 437.449 204.131 437.449 204.356 437.539 C 205.616 438.069 208.166 441.039 208.196 441.079 C 208.226 441.119 208.426 441.129 208.396 440.999 C 207.604 437.682 206.643 434.408 205.516 431.189 C 204.435 428.227 203.097 425.366 201.516 422.639 C 201.186 422.049 201.106 421.979 200.676 422.639 C 199.746 424.209 198.396 426.149 195.596 433.789 C 194.035 438.376 192.93 443.106 192.296 447.909 C 192.296 448.049 192.386 448.099 192.476 447.989 C 194.826 445.059 202.236 438.249 203.656 437.539 Z M 198.486 440.729 C 200.396 439.039 202.486 437.359 202.486 437.359 L 202.486 426.579 C 202.327 426.123 202.123 425.684 201.876 425.269 C 201.546 424.659 201.266 424.199 201.126 423.969 C 201.083 423.896 200.978 423.896 200.936 423.969 C 199.423 426.563 198.161 429.296 197.166 432.129 C 195.473 436.308 194.275 440.671 193.596 445.129 C 193.584 445.197 193.651 445.253 193.716 445.228 C 193.732 445.223 193.745 445.212 193.756 445.199 C 194.336 444.609 195.946 442.969 198.486 440.729 Z M 203.486 429.059 L 203.486 436.629 C 203.733 436.527 203.998 436.476 204.266 436.479 C 205.046 436.479 206.066 437.479 206.486 437.909 C 206.546 437.959 206.666 437.909 206.646 437.819 C 206.506 437.199 206.046 435.659 205.496 433.949 C 204.991 432.263 204.349 430.621 203.576 429.039 C 203.576 429.039 203.506 429.059 203.506 429.059 Z" style="fill: rgb(74, 115, 131);"></path>
  <path class="cls-3" d="M 182.686 441.369 C 183.43 445.483 185.583 449.21 188.776 451.909 L 188.776 452.909 C 185.124 450.03 182.666 445.902 181.876 441.319 Z" style="fill: rgb(74, 115, 131);"></path>
  <path class="cls-3" d="M 181.596 438.759 C 181.596 438.569 181.596 438.379 181.596 438.189 C 181.612 428.266 189.323 420.056 199.226 419.419 L 198.666 420.289 C 189.475 421.187 182.454 428.894 182.416 438.129 Z" style="fill: rgb(74, 115, 131);"></path>
  <path class="cls-3" d="M 191.436 453.779 C 194.17 455.363 197.276 456.192 200.436 456.179 C 214.292 456.086 222.851 441.029 215.843 429.075 C 213.199 424.566 208.726 421.429 203.586 420.479 L 202.986 419.559 C 217.33 421.536 224.155 438.3 215.27 449.734 C 209.471 457.198 199.034 459.199 190.886 454.409 Z" style="fill: rgb(74, 115, 131);"></path>
  <path class="cls-1" d="M 182.616 441.959 C 180.936 441.959 180.016 441.619 179.796 440.959 C 179.506 439.959 180.666 438.619 183.246 436.899 C 186.396 434.921 189.708 433.211 193.146 431.789 L 193.776 431.519 L 193.296 432.819 L 193.176 432.869 C 184.846 436.419 180.746 439.779 180.976 440.509 C 180.976 440.509 181.136 440.789 182.626 440.789 C 185.846 440.789 193.156 439.439 201.626 436.479 C 205.391 435.154 209.065 433.584 212.626 431.779 L 212.626 431.779 C 212.478 431.727 212.381 431.586 212.386 431.429 C 212.386 431.271 212.486 431.13 212.636 431.079 L 212.636 431.079 C 213.009 431.02 213.37 430.902 213.706 430.729 C 213.927 430.272 214.072 429.783 214.136 429.279 L 214.136 429.279 C 214.229 429.002 214.588 428.93 214.781 429.15 C 214.814 429.188 214.84 429.231 214.856 429.279 L 214.856 429.279 C 214.917 429.784 215.066 430.275 215.296 430.729 C 215.607 430.9 215.945 431.018 216.296 431.079 L 216.296 431.079 C 216.565 431.193 216.61 431.556 216.377 431.732 C 216.352 431.751 216.325 431.767 216.296 431.779 L 216.296 431.779 C 215.944 431.85 215.606 431.978 215.296 432.159 C 215.064 432.63 214.915 433.138 214.856 433.659 L 214.856 433.659 C 214.762 433.936 214.403 434.008 214.21 433.788 C 214.177 433.751 214.152 433.707 214.136 433.659 L 214.136 433.659 C 214.07 433.223 213.962 432.795 213.816 432.379 C 210.084 434.372 206.198 436.06 202.196 437.429 C 194.376 440.119 186.506 441.959 182.616 441.959 Z" style="fill: rgb(7, 19, 34);"></path>
  <path class="cls-3" d="M 193.066 432.559 C 185.626 435.729 180.316 439.369 180.686 440.559 C 181.056 441.749 190.776 440.559 201.686 436.719 C 205.716 435.318 209.64 433.627 213.426 431.659 L 213.426 431.659 C 213.193 431.579 212.956 431.513 212.716 431.459 C 212.658 431.438 212.645 431.362 212.692 431.322 C 212.699 431.317 212.707 431.312 212.716 431.309 C 213.145 431.245 213.561 431.11 213.946 430.909 C 214.208 430.405 214.383 429.861 214.466 429.299 C 214.466 429.245 214.524 429.212 214.571 429.238 C 214.592 429.251 214.606 429.274 214.606 429.299 C 214.689 429.861 214.865 430.405 215.126 430.909 C 215.49 431.115 215.885 431.26 216.296 431.339 C 216.353 431.361 216.366 431.436 216.319 431.476 C 216.312 431.481 216.304 431.486 216.296 431.489 C 215.883 431.577 215.488 431.733 215.126 431.949 C 214.867 432.468 214.695 433.025 214.616 433.599 C 214.594 433.657 214.518 433.67 214.479 433.622 C 214.473 433.615 214.469 433.608 214.466 433.599 C 214.381 433.012 214.206 432.442 213.946 431.909 L 213.946 431.909 C 210.149 433.957 206.189 435.687 202.106 437.079 C 191.906 440.629 180.726 442.949 180.106 440.809 C 179.586 439.109 185.106 435.499 193.276 431.999 Z" style="fill: rgb(74, 115, 131);"></path>
  <circle class="cls-15" cx="206.906" cy="423.529" r="0.41" style="fill: rgb(110, 143, 156);"></circle>
  <circle class="cls-15" cx="210.156" cy="426.609" r="0.31" style="fill: rgb(110, 143, 156);"></circle>
  <circle class="cls-15" cx="211.916" cy="428.459" r="0.46" style="fill: rgb(110, 143, 156);"></circle>
  <circle class="cls-15" cx="208.656" cy="428.809" r="0.4" style="fill: rgb(110, 143, 156);"></circle>
  <circle class="cls-15" cx="209.986" cy="429.309" r="0.33" style="fill: rgb(110, 143, 156);"></circle>
  <circle class="cls-15" cx="210.986" cy="430.339" r="0.4" style="fill: rgb(110, 143, 156);"></circle>
  <circle class="cls-15" cx="212.656" cy="430.639" r="0.27" style="fill: rgb(110, 143, 156);"></circle>
  <circle class="cls-15" cx="210.246" cy="432.269" r="0.41" style="fill: rgb(110, 143, 156);"></circle>
  <circle class="cls-15" cx="208.836" cy="431.029" r="0.26" style="fill: rgb(110, 143, 156);"></circle>
  <circle class="cls-15" cx="212.146" cy="434.039" r="0.26" style="fill: rgb(110, 143, 156);"></circle>
  <circle class="cls-15" cx="210.846" cy="436.029" r="0.47" style="fill: rgb(110, 143, 156);"></circle>
  <circle class="cls-15" cx="214.586" cy="435.329" r="0.31" style="fill: rgb(110, 143, 156);"></circle>
  <circle class="cls-15" cx="216.586" cy="434.409" r="0.31" style="fill: rgb(110, 143, 156);"></circle>
  <circle class="cls-15" cx="213.536" cy="438.709" r="0.43" style="fill: rgb(110, 143, 156);"></circle>
  <circle class="cls-15" cx="214.476" cy="442.369" r="0.46" style="fill: rgb(110, 143, 156);"></circle>
  <circle class="cls-15" cx="215.686" cy="444.369" r="0.31" style="fill: rgb(110, 143, 156);"></circle>
  <circle class="cls-15" cx="213.216" cy="446.469" r="0.49" style="fill: rgb(110, 143, 156);"></circle>
  <circle class="cls-15" cx="203.256" cy="452.919" r="0.46" style="fill: rgb(110, 143, 156);"></circle>
  <circle class="cls-15" cx="202.476" cy="449.529" r="0.43" style="fill: rgb(110, 143, 156);"></circle>
  <circle class="cls-15" cx="201.486" cy="448.659" r="0.31" style="fill: rgb(110, 143, 156);"></circle>
  <circle class="cls-15" cx="204.436" cy="448.389" r="0.4" style="fill: rgb(110, 143, 156);"></circle>
  <circle class="cls-15" cx="203.406" cy="446.889" r="0.24" style="fill: rgb(110, 143, 156);"></circle>
  <circle class="cls-15" cx="203.956" cy="445.899" r="0.36" style="fill: rgb(110, 143, 156);"></circle>
  <circle class="cls-15" cx="202.676" cy="445.429" r="0.31" style="fill: rgb(110, 143, 156);"></circle>
  <circle class="cls-15" cx="188.416" cy="436.759" r="0.46" style="fill: rgb(110, 143, 156);"></circle>
  <circle class="cls-15" cx="186.316" cy="434.099" r="0.43" style="fill: rgb(110, 143, 156);"></circle>
  <circle class="cls-15" cx="191.876" cy="429.599" r="0.34" style="fill: rgb(110, 143, 156);"></circle>
  <circle class="cls-15" cx="193.026" cy="428.589" r="0.44" style="fill: rgb(110, 143, 156);"></circle>
  <circle class="cls-15" cx="194.686" cy="424.409" r="0.4" style="fill: rgb(110, 143, 156);"></circle>
  <circle class="cls-15" cx="187.406" cy="446.139" r="0.5" style="fill: rgb(110, 143, 156);"></circle>
  <path class="cls-3" d="M 179.856 438.259 L 179.456 438.259 L 179.626 435.499 L 179.236 435.499 L 178.506 437.909 C 178.454 438.089 178.282 438.206 178.096 438.189 L 177.766 438.189 C 177.658 438.18 177.557 438.13 177.486 438.049 C 177.413 437.971 177.377 437.865 177.386 437.759 L 177.566 434.989 L 177.976 434.989 L 177.796 437.759 L 178.126 437.759 L 178.846 435.359 C 178.901 435.182 179.071 435.066 179.256 435.079 L 179.666 435.079 C 179.887 435.095 180.053 435.288 180.036 435.509 Z" style="fill: rgb(74, 115, 131);"></path>
  <polygon class="cls-3" points="178.636 432.139 180.656 432.649 180.556 433.049 178.536 432.539 178.146 434.009 177.746 433.899 178.626 430.549 179.016 430.649 178.636 432.139" style="fill: rgb(74, 115, 131);"></polygon>
  <polygon class="cls-3" points="199.906 415.619 199.936 417.699 199.526 417.709 199.496 415.629 197.986 415.629 197.976 415.219 201.446 415.189 201.446 415.599 199.906 415.619" style="fill: rgb(74, 115, 131);"></polygon>
  <path class="cls-3" d="M 185.376 424.249 L 185.076 424.539 L 183.646 423.019 C 183.479 422.858 183.479 422.59 183.646 422.429 L 185.646 420.549 L 185.926 420.849 L 184.036 422.639 C 183.989 422.686 183.989 422.762 184.036 422.809 L 184.346 423.139 L 186.346 421.259 L 186.626 421.559 L 184.626 423.439 Z" style="fill: rgb(74, 115, 131);"></path>
  <path class="cls-3" d="M 190.656 419.559 L 190.016 418.039 C 189.926 417.821 190.028 417.571 190.246 417.479 L 192.756 416.419 L 192.916 416.799 L 190.516 417.799 C 190.453 417.83 190.423 417.903 190.446 417.969 L 190.646 418.449 L 193.166 417.379 L 193.326 417.759 L 190.806 418.819 L 191.016 419.319 C 191.038 419.368 191.096 419.39 191.146 419.369 L 193.576 418.369 L 193.736 418.749 L 191.226 419.809 C 190.999 419.898 190.744 419.786 190.656 419.559 Z" style="fill: rgb(74, 115, 131);"></path>
  <path class="cls-3" d="M 194.236 418.109 L 193.886 416.489 C 193.836 416.263 193.979 416.039 194.206 415.989 L 196.876 415.409 L 196.966 415.809 L 194.416 416.359 C 194.356 416.359 194.296 416.449 194.316 416.509 L 194.426 417.019 L 197.096 416.439 L 197.186 416.839 L 194.516 417.419 L 194.626 417.939 C 194.636 417.995 194.69 418.031 194.746 418.019 L 197.326 417.449 L 197.416 417.849 L 194.746 418.439 C 194.514 418.489 194.286 418.341 194.236 418.109 Z" style="fill: rgb(74, 115, 131);"></path>
  <path class="cls-3" d="M 190.446 420.209 L 188.126 421.749 C 187.955 421.868 187.72 421.823 187.606 421.649 L 186.416 419.909 L 186.756 419.679 L 187.856 421.329 C 187.904 421.371 187.977 421.371 188.026 421.329 L 190.216 419.909 Z" style="fill: rgb(74, 115, 131);"></path>
  <path class="cls-3" d="M 180.276 430.109 L 179.616 429.579 C 179.57 429.524 179.57 429.444 179.616 429.389 L 180.146 428.219 C 180.178 428.157 180.246 428.121 180.316 428.129 L 181.156 428.279 Z M 181.526 428.359 L 182.266 428.489 L 182.436 428.119 L 180.226 427.699 C 180.044 427.668 179.864 427.762 179.786 427.929 L 179.146 429.349 C 179.068 429.515 179.113 429.713 179.256 429.829 L 181.026 431.219 L 181.196 430.849 L 180.606 430.379 Z" style="fill: rgb(74, 115, 131);"></path>
  <path class="cls-3" d="M 184.676 424.909 L 184.426 425.259 L 183.196 425.259 L 182.196 426.739 L 183.036 427.329 L 182.806 427.669 L 181.096 426.479 C 180.906 426.348 180.857 426.09 180.986 425.899 L 182.366 423.899 C 182.491 423.728 182.728 423.684 182.906 423.799 L 183.486 424.199 C 183.667 424.318 183.712 424.563 183.586 424.739 L 183.496 424.869 Z M 182.616 424.199 L 181.366 425.999 C 181.319 426.046 181.319 426.122 181.366 426.169 L 181.806 426.479 L 183.126 424.579 C 183.163 424.544 183.163 424.485 183.126 424.449 L 182.726 424.179 C 182.701 424.144 182.652 424.135 182.616 424.159 Z" style="fill: rgb(74, 115, 131);"></path>
  <path class="cls-3" d="M 210.546 419.909 L 208.476 418.909 C 208.421 418.886 208.395 418.824 208.416 418.769 L 209.056 417.459 C 209.098 417.397 209.179 417.376 209.246 417.409 L 211.246 418.409 C 211.32 418.445 211.355 418.532 211.326 418.609 L 210.746 419.909 C 210.689 419.96 210.603 419.96 210.546 419.909 Z M 211.546 418.089 L 209.246 416.979 C 209.03 416.861 208.761 416.942 208.646 417.159 L 207.946 418.649 C 207.848 418.881 207.955 419.148 208.186 419.249 L 210.476 420.359 C 210.683 420.471 210.941 420.395 211.056 420.189 L 211.796 418.659 C 211.884 418.449 211.797 418.206 211.596 418.099 Z" style="fill: rgb(74, 115, 131);"></path>
  <path class="cls-3" d="M 207.296 418.409 L 204.726 417.749 C 204.673 417.735 204.639 417.683 204.646 417.629 L 205.016 416.209 C 205.039 416.144 205.11 416.109 205.176 416.129 L 207.716 416.779 L 207.816 416.379 L 205.156 415.699 C 204.931 415.636 204.699 415.772 204.646 415.999 L 204.226 417.599 C 204.163 417.829 204.303 418.065 204.536 418.119 L 207.196 418.809 Z" style="fill: rgb(74, 115, 131);"></path>
  <path class="cls-3" d="M 220.796 437.359 L 220.676 434.909 C 220.669 434.833 220.721 434.764 220.796 434.749 L 223.046 434.639 C 223.121 434.644 223.181 434.704 223.186 434.779 L 223.306 437.209 C 223.306 437.28 223.285 437.35 223.246 437.409 L 222.686 438.099 C 222.641 438.148 222.581 438.18 222.516 438.189 L 221.686 438.189 C 221.618 438.193 221.552 438.168 221.506 438.119 L 220.886 437.489 C 220.846 437.453 220.815 437.409 220.796 437.359 Z M 221.106 435.359 L 221.196 437.209 C 221.187 437.242 221.187 437.276 221.196 437.309 L 221.636 437.759 C 221.665 437.768 221.696 437.768 221.726 437.759 L 222.326 437.759 C 222.357 437.752 222.386 437.734 222.406 437.709 L 222.806 437.219 C 222.816 437.183 222.816 437.145 222.806 437.109 L 222.716 435.269 C 222.722 435.195 222.66 435.133 222.586 435.139 L 221.146 435.209 C 221.101 435.245 221.084 435.306 221.106 435.359 Z" style="fill: rgb(74, 115, 131);"></path>
  <path class="cls-3" d="M 219.036 427.319 L 219.856 427.109 C 219.927 427.095 219.999 427.127 220.036 427.189 L 220.646 428.319 C 220.684 428.376 220.684 428.452 220.646 428.509 L 220.016 429.089 Z M 219.676 429.319 L 219.126 429.829 L 219.326 430.199 L 220.946 428.729 C 221.083 428.604 221.116 428.401 221.026 428.239 L 220.326 426.909 C 220.239 426.748 220.052 426.669 219.876 426.719 L 217.696 427.279 L 217.896 427.639 L 218.626 427.459 Z" style="fill: rgb(74, 115, 131);"></path>
  <path class="cls-3" d="M 220.396 433.799 L 220.316 433.499 C 220.29 433.431 220.29 433.357 220.316 433.289 L 221.616 430.849 C 221.616 430.849 221.616 430.649 221.546 430.659 L 219.656 431.189 L 219.546 430.799 L 221.696 430.209 C 221.84 430.165 221.992 430.252 222.026 430.399 L 222.096 430.609 C 222.126 430.686 222.126 430.772 222.096 430.849 L 220.816 433.299 C 220.816 433.299 220.816 433.509 220.886 433.489 L 222.776 432.959 L 222.886 433.359 L 220.706 433.969 C 220.573 434.008 220.434 433.932 220.396 433.799 Z" style="fill: rgb(74, 115, 131);"></path>
  <path class="cls-3" d="M 213.196 422.269 L 212.816 421.979 C 212.736 421.918 212.707 421.812 212.746 421.719 L 213.456 419.929 C 213.495 419.887 213.495 419.821 213.456 419.779 L 213.276 419.629 C 213.224 419.585 213.148 419.585 213.096 419.629 L 211.876 421.189 L 211.556 420.939 L 212.956 419.149 C 213.049 419.055 213.202 419.055 213.296 419.149 L 213.886 419.609 C 213.975 419.682 214 419.808 213.946 419.909 L 213.196 421.779 L 213.356 421.899 L 214.946 420.689 C 215.031 420.624 215.15 420.624 215.236 420.689 L 215.826 421.149 C 215.927 421.244 215.927 421.404 215.826 421.499 L 214.436 423.289 L 214.106 423.029 L 215.326 421.479 C 215.38 421.431 215.38 421.347 215.326 421.299 L 215.146 421.149 C 215.097 421.118 215.035 421.118 214.986 421.149 L 213.416 422.279 C 213.345 422.313 213.263 422.31 213.196 422.269 Z" style="fill: rgb(74, 115, 131);"></path>
  <path class="cls-3" d="M 216.346 425.459 L 216.046 425.079 C 215.986 425.003 215.986 424.895 216.046 424.819 L 217.136 423.229 C 217.176 423.184 217.176 423.115 217.136 423.069 L 216.946 422.909 C 216.894 422.865 216.818 422.865 216.766 422.909 L 215.236 424.159 L 214.976 423.839 L 216.736 422.409 C 216.829 422.315 216.982 422.315 217.076 422.409 L 217.556 422.989 C 217.615 423.077 217.615 423.191 217.556 423.279 L 216.456 424.909 L 216.576 425.059 L 218.426 424.279 C 218.527 424.236 218.645 424.264 218.716 424.349 L 219.186 424.929 C 219.286 425.02 219.286 425.178 219.186 425.269 L 217.426 426.709 L 217.176 426.389 L 218.706 425.139 C 218.749 425.087 218.749 425.011 218.706 424.959 L 218.556 424.779 C 218.511 424.747 218.451 424.747 218.406 424.779 L 216.626 425.529 C 216.527 425.574 216.411 425.545 216.346 425.459 Z" style="fill: rgb(74, 115, 131);"></path>
  <path class="cls-3" d="M 196.746 460.049 L 196.936 459.539 C 196.955 459.496 196.998 459.469 197.046 459.469 L 197.816 459.569 C 197.862 459.577 197.898 459.613 197.906 459.659 L 197.966 460.199 Z M 197.996 460.469 L 198.056 460.949 L 198.296 460.949 L 198.146 459.509 C 198.137 459.395 198.049 459.303 197.936 459.289 L 196.996 459.169 C 196.88 459.158 196.772 459.229 196.736 459.339 L 196.236 460.699 L 196.476 460.699 L 196.656 460.239 Z" style="fill: rgb(74, 115, 131);"></path>
  <path class="cls-3" d="M 217.376 452.549 L 217.046 452.109 C 217.026 452.071 217.026 452.027 217.046 451.989 L 217.546 451.379 C 217.582 451.355 217.629 451.355 217.666 451.379 L 218.156 451.609 Z M 218.376 451.709 L 218.816 451.919 L 218.976 451.729 L 217.676 451.089 C 217.574 451.034 217.448 451.06 217.376 451.149 L 216.776 451.889 C 216.704 451.98 216.704 452.108 216.776 452.199 L 217.656 453.339 L 217.816 453.149 L 217.526 452.759 Z" style="fill: rgb(74, 115, 131);"></path>
  <path class="cls-3" d="M 203.806 460.599 L 202.486 460.729 C 202.451 460.744 202.412 460.717 202.416 460.679 L 202.326 459.759 C 202.325 459.713 202.36 459.674 202.406 459.669 L 203.696 459.539 C 203.745 459.533 203.79 459.569 203.796 459.619 L 203.886 460.509 C 203.892 460.557 203.854 460.599 203.806 460.599 Z M 203.806 459.279 L 202.336 459.419 C 202.19 459.435 202.084 459.563 202.096 459.709 L 202.196 460.709 C 202.216 460.857 202.346 460.966 202.496 460.959 L 203.966 460.809 C 204.105 460.793 204.207 460.669 204.196 460.529 L 204.086 459.459 C 204.052 459.317 203.904 459.234 203.766 459.279 Z" style="fill: rgb(74, 115, 131);"></path>
  <path class="cls-3" d="M 210.006 458.709 L 208.816 459.279 C 208.792 459.306 208.75 459.306 208.726 459.279 L 208.336 458.439 C 208.306 458.408 208.306 458.36 208.336 458.329 L 209.506 457.769 C 209.54 457.739 209.591 457.739 209.626 457.769 L 210.006 458.579 C 210.056 458.599 210.065 458.666 210.023 458.699 C 210.018 458.703 210.012 458.707 210.006 458.709 Z M 209.526 457.479 L 208.186 458.109 C 208.054 458.176 208 458.336 208.066 458.469 L 208.516 459.409 C 208.575 459.549 208.741 459.609 208.876 459.539 L 210.206 458.909 C 210.335 458.85 210.389 458.696 210.326 458.569 L 209.866 457.569 C 209.796 457.451 209.645 457.411 209.526 457.479 Z" style="fill: rgb(74, 115, 131);"></path>
  <line class="cls-3" x1="220.656" y1="448.729" x2="221.406" y2="447.209" style="fill: rgb(74, 115, 131);"></line>
  <path class="cls-3" d="M 220.466 448.779 L 219.526 448.309 C 219.39 448.246 219.332 448.084 219.396 447.949 L 220.086 446.559 L 220.316 446.679 L 219.666 447.989 C 219.639 448.025 219.639 448.074 219.666 448.109 L 219.956 448.249 L 220.646 446.869 L 220.886 446.979 L 220.196 448.369 L 220.506 448.519 C 220.528 448.539 220.563 448.539 220.586 448.519 L 221.246 447.189 L 221.486 447.299 L 220.796 448.689 C 220.721 448.794 220.583 448.831 220.466 448.779 Z" style="fill: rgb(74, 115, 131);"></path>
  <line class="cls-3" x1="191.586" y1="459.169" x2="193.176" y2="459.769" style="fill: rgb(74, 115, 131);"></line>
  <path class="cls-3" d="M 191.526 458.989 L 191.906 457.989 C 191.957 457.853 192.108 457.782 192.246 457.829 L 193.696 458.389 L 193.596 458.629 L 192.236 458.109 C 192.205 458.08 192.157 458.08 192.126 458.109 L 192.006 458.419 L 193.446 458.969 L 193.356 459.219 L 191.946 458.719 L 191.816 459.039 C 191.799 459.063 191.799 459.095 191.816 459.119 L 193.206 459.649 L 193.116 459.899 L 191.676 459.339 C 191.534 459.288 191.465 459.127 191.526 458.989 Z" style="fill: rgb(74, 115, 131);"></path>
  <line class="cls-3" x1="187.116" y1="456.689" x2="188.536" y2="457.619" style="fill: rgb(74, 115, 131);"></line>
  <path class="cls-3" d="M 187.096 456.499 L 187.676 455.619 C 187.757 455.49 187.929 455.453 188.056 455.539 L 189.336 456.389 L 189.196 456.609 L 187.946 455.799 C 187.909 455.775 187.862 455.775 187.826 455.799 L 187.646 456.079 L 188.946 456.909 L 188.796 457.129 L 187.516 456.279 L 187.326 456.559 C 187.299 456.583 187.299 456.625 187.326 456.649 L 188.576 457.469 L 188.426 457.689 L 187.166 456.909 C 187.019 456.825 186.985 456.627 187.096 456.499 Z" style="fill: rgb(74, 115, 131);"></path>
  <line class="cls-3" x1="181.186" y1="450.319" x2="182.156" y2="451.709" style="fill: rgb(74, 115, 131);"></line>
  <path class="cls-3" d="M 181.226 450.139 L 182.096 449.539 C 182.217 449.45 182.388 449.477 182.476 449.599 L 183.356 450.869 L 183.136 451.019 L 182.306 449.819 C 182.274 449.783 182.218 449.783 182.186 449.819 L 181.916 449.999 L 182.796 451.269 L 182.586 451.419 L 181.706 450.149 L 181.426 450.349 C 181.404 450.375 181.404 450.413 181.426 450.439 L 182.276 451.659 L 182.066 451.809 L 181.176 450.539 C 181.076 450.416 181.099 450.234 181.226 450.139 Z" style="fill: rgb(74, 115, 131);"></path>
  <polygon class="cls-3" points="220.866 445.099 222.136 445.549 222.046 445.799 220.786 445.349 220.486 446.189 220.236 446.099 220.916 444.169 221.166 444.259 220.866 445.099" style="fill: rgb(74, 115, 131);"></polygon>
  <polygon class="cls-3" points="181.456 448.349 180.256 448.949 180.136 448.709 181.336 448.109 180.936 447.309 181.176 447.199 182.086 449.019 181.856 449.139 181.456 448.349" style="fill: rgb(74, 115, 131);"></polygon>
  <polygon class="cls-3" points="199.896 459.679 199.856 461.019 199.586 461.019 199.636 459.669 198.746 459.639 198.756 459.379 200.796 459.449 200.786 459.709 199.896 459.679" style="fill: rgb(74, 115, 131);"></polygon>
  <path class="cls-3" d="M 210.946 457.769 L 211.306 458.409 L 211.086 458.539 L 210.426 457.379 C 210.35 457.249 210.395 457.083 210.526 457.009 L 211.866 456.249 L 211.996 456.479 L 210.726 457.199 C 210.696 457.23 210.696 457.278 210.726 457.309 L 210.846 457.539 L 210.846 457.539 L 212.196 456.779 L 212.326 456.999 L 210.976 457.769 Z" style="fill: rgb(74, 115, 131);"></path>
  <path class="cls-3" d="M 185.706 454.709 L 185.216 455.269 L 185.016 455.089 L 185.896 454.089 C 186.003 453.99 186.168 453.99 186.276 454.089 L 187.436 455.089 L 187.266 455.289 L 186.166 454.289 C 186.13 454.262 186.081 454.262 186.046 454.289 L 185.876 454.489 L 185.876 454.489 L 187.036 455.489 L 186.866 455.689 L 185.696 454.689 Z" style="fill: rgb(74, 115, 131);"></path>
  <path class="cls-3" d="M 220.376 449.609 L 220.266 449.779 C 220.244 449.822 220.203 449.852 220.156 449.859 L 218.456 450.229 C 218.456 450.229 218.376 450.319 218.396 450.339 L 219.466 451.029 L 219.326 451.249 L 218.116 450.459 C 218.055 450.391 218.055 450.287 218.116 450.219 L 218.196 450.099 C 218.224 450.056 218.266 450.024 218.316 450.009 L 220.016 449.629 C 220.016 449.629 220.106 449.529 220.076 449.509 L 218.946 448.829 L 219.096 448.609 L 220.316 449.399 C 220.398 449.434 220.427 449.536 220.376 449.609 Z" style="fill: rgb(74, 115, 131);"></path>
  <path class="cls-3" d="M 206.776 460.279 L 206.576 460.279 C 206.534 460.294 206.488 460.294 206.446 460.279 L 204.996 459.279 C 204.996 459.279 204.866 459.279 204.866 459.279 L 205.126 460.519 L 204.876 460.569 L 204.586 459.159 C 204.567 459.068 204.625 458.979 204.716 458.959 L 204.866 458.959 C 204.914 458.94 204.968 458.94 205.016 458.959 L 206.476 459.899 C 206.476 459.899 206.606 459.899 206.596 459.899 L 206.336 458.659 L 206.596 458.609 L 206.896 460.029 C 206.973 460.115 206.928 460.252 206.815 460.276 C 206.802 460.279 206.789 460.28 206.776 460.279 Z" style="fill: rgb(74, 115, 131);"></path>
  <path class="cls-3" d="M 179.106 446.499 L 179.026 446.309 C 179.011 446.264 179.011 446.215 179.026 446.169 L 179.746 444.599 C 179.746 444.599 179.746 444.469 179.746 444.479 L 178.556 444.919 L 178.466 444.679 L 179.816 444.179 C 179.904 444.151 179.999 444.194 180.036 444.279 L 180.096 444.419 C 180.111 444.468 180.111 444.52 180.096 444.569 L 179.386 446.159 C 179.386 446.159 179.386 446.289 179.436 446.279 L 180.626 445.839 L 180.716 446.079 L 179.356 446.589 C 179.271 446.667 179.133 446.624 179.108 446.511 C 179.107 446.507 179.106 446.503 179.106 446.499 Z" style="fill: rgb(74, 115, 131);"></path>
  <path class="cls-3" d="M 190.346 458.769 L 189.136 458.109 C 189.106 458.078 189.106 458.03 189.136 457.999 L 189.816 456.749 C 189.844 456.713 189.898 456.713 189.926 456.749 L 191.136 457.399 C 191.173 457.423 191.201 457.458 191.216 457.499 L 191.366 457.999 C 191.38 458.041 191.38 458.087 191.366 458.129 L 191.116 458.589 C 191.098 458.625 191.065 458.651 191.026 458.659 L 190.516 458.809 C 190.457 458.841 190.384 458.824 190.346 458.769 Z M 189.486 458.009 L 190.406 458.509 L 190.466 458.509 L 190.826 458.409 L 191.006 458.079 C 191.01 458.059 191.01 458.039 191.006 458.019 L 190.946 457.609 L 190.946 457.609 L 190.026 457.109 C 189.998 457.081 189.953 457.081 189.926 457.109 L 189.486 457.909 C 189.462 457.938 189.462 457.98 189.486 458.009 Z" style="fill: rgb(74, 115, 131);"></path>
  <path class="cls-3" d="M 183.426 453.489 L 182.506 452.489 C 182.47 452.457 182.47 452.401 182.506 452.369 L 183.566 451.419 C 183.6 451.389 183.651 451.389 183.686 451.419 L 184.596 452.419 C 184.613 452.454 184.613 452.495 184.596 452.529 L 184.596 453.059 C 184.594 453.101 184.576 453.14 184.546 453.169 L 184.156 453.519 C 184.117 453.532 184.075 453.532 184.036 453.519 L 183.516 453.519 C 183.486 453.539 183.446 453.529 183.426 453.489 Z M 182.866 452.489 L 183.566 453.279 L 183.626 453.279 L 183.996 453.279 L 184.056 453.279 L 184.336 453.029 C 184.345 453.014 184.345 452.995 184.336 452.979 L 184.336 452.599 C 184.34 452.579 184.34 452.559 184.336 452.539 L 183.636 451.759 C 183.605 451.73 183.557 451.73 183.526 451.759 L 182.846 452.359 C 182.82 452.398 182.829 452.45 182.866 452.479 Z" style="fill: rgb(74, 115, 131);"></path>
  <path class="cls-3" d="M 195.676 460.589 L 195.406 460.519 L 195.166 459.779 L 194.166 459.529 L 193.996 460.159 L 193.746 460.089 L 194.076 458.799 C 194.115 458.656 194.262 458.571 194.406 458.609 L 195.756 458.959 C 195.884 458.998 195.962 459.128 195.936 459.259 L 195.826 459.699 C 195.791 459.836 195.651 459.917 195.516 459.879 L 195.426 459.879 Z M 195.676 459.199 L 194.456 458.909 C 194.411 458.896 194.365 458.924 194.356 458.969 L 194.266 459.299 L 195.546 459.639 C 195.567 459.654 195.595 459.654 195.616 459.639 L 195.696 459.339 C 195.742 459.298 195.727 459.223 195.668 459.203 C 195.661 459.201 195.653 459.199 195.646 459.199 Z" style="fill: rgb(74, 115, 131);"></path>
  <path class="cls-3" d="M 179.696 443.449 L 178.486 443.749 C 178.44 443.771 178.388 443.739 178.386 443.689 L 178.056 442.399 C 178.057 442.368 178.077 442.341 178.106 442.329 L 179.336 442.019 L 179.266 441.769 L 177.996 442.089 C 177.844 442.118 177.751 442.272 177.796 442.419 L 178.156 443.839 C 178.19 443.976 178.328 444.061 178.466 444.029 L 179.756 443.709 Z" style="fill: rgb(74, 115, 131);"></path>
  <path class="cls-3" d="M 222.556 444.179 L 222.306 444.119 L 222.766 442.399 L 222.526 442.339 L 221.756 443.759 C 221.697 443.859 221.578 443.909 221.466 443.879 L 221.256 443.829 C 221.114 443.795 221.031 443.648 221.076 443.509 L 221.546 441.789 L 221.796 441.859 L 221.326 443.579 L 221.536 443.629 L 222.296 442.209 C 222.356 442.104 222.48 442.055 222.596 442.089 L 222.846 442.149 C 222.98 442.192 223.059 442.332 223.026 442.469 Z" style="fill: rgb(74, 115, 131);"></path>
  <path class="cls-3" d="M 214.946 454.659 C 215.039 454.749 215.039 454.899 214.946 454.989 L 213.756 455.989 L 213.756 455.989 L 214.216 456.569 L 214.016 456.729 L 213.176 455.729 C 213.077 455.622 213.077 455.456 213.176 455.349 L 214.356 454.399 C 214.449 454.305 214.602 454.305 214.696 454.399 Z M 214.446 454.589 L 213.446 455.419 C 213.415 455.453 213.415 455.505 213.446 455.539 L 213.606 455.739 L 213.606 455.739 L 214.696 454.859 C 214.725 454.828 214.725 454.78 214.696 454.749 L 214.576 454.599 C 214.544 454.566 214.492 454.561 214.456 454.589 Z" style="fill: rgb(74, 115, 131);"></path>
  <path class="cls-3" d="M 217.136 453.579 L 216.016 454.659 C 216.016 454.659 215.936 454.659 215.936 454.659 L 215.056 453.749 L 214.866 453.929 L 215.776 454.929 C 215.884 455.034 216.057 455.034 216.166 454.929 L 217.316 453.799 Z" style="fill: rgb(74, 115, 131);"></path>
  <rect class="cls-3" x="52.35" y="447.52" width="0.26" height="1.62" transform="matrix(0.999777, -0.021117, 0.021117, 0.999777, 139.485657, 13.119073)" style="fill: rgb(74, 115, 131);"></rect>
  <rect class="cls-3" x="30.44" y="434.94" width="1.62" height="0.26" transform="matrix(0.907631, -0.419769, 0.419769, 0.907631, -30.774338, 65.199074)" style="fill: rgb(74, 115, 131);"></rect>
  <circle class="cls-16" cx="200.356" cy="438.289" r="26.5" style="fill: none; stroke: rgb(7, 19, 34); stroke-miterlimit: 10; stroke-width: 0.54px;"></circle>
</svg>