<?xml version="1.0" encoding="UTF-8" standalone="no"?>
<svg
   xmlns:dc="http://purl.org/dc/elements/1.1/"
   xmlns:cc="http://creativecommons.org/ns#"
   xmlns:rdf="http://www.w3.org/1999/02/22-rdf-syntax-ns#"
   xmlns:svg="http://www.w3.org/2000/svg"
   xmlns="http://www.w3.org/2000/svg"
   xmlns:sodipodi="http://sodipodi.sourceforge.net/DTD/sodipodi-0.dtd"
   xmlns:inkscape="http://www.inkscape.org/namespaces/inkscape"
   inkscape:version="1.0 (4035a4fb49, 2020-05-01)"
   sodipodi:docname="mainroomSVGProtoBW.svg"
   viewBox="0 0 2044 1227"
   height="1227"
   width="2044"
   id="svg30"
   version="1.1">
  <metadata
     id="metadata36">
    <rdf:RDF>
      <cc:Work
         rdf:about="">
        <dc:format>image/svg+xml</dc:format>
        <dc:type
           rdf:resource="http://purl.org/dc/dcmitype/StillImage" />
        <dc:title></dc:title>
      </cc:Work>
    </rdf:RDF>
  </metadata>
  <defs
     id="defs34" />
  <sodipodi:namedview
     inkscape:current-layer="g38"
     inkscape:window-maximized="1"
     inkscape:window-y="-8"
     inkscape:window-x="-8"
     inkscape:cy="613.5"
     inkscape:cx="1022"
     inkscape:zoom="0.51810176"
     showgrid="false"
     id="namedview32"
     inkscape:window-height="1089"
     inkscape:window-width="2048"
     inkscape:pageshadow="2"
     inkscape:pageopacity="0"
     guidetolerance="10"
     gridtolerance="10"
     objecttolerance="10"
     borderopacity="1"
     bordercolor="#666666"
     pagecolor="#ffffff" />
  <g
     id="g38"
     inkscape:label="Image"
     inkscape:groupmode="layer">
    <path
       id="path58"
       d="m 505.92469,1226.5291 c 281.1875,-0.1386 741.31241,-0.1386 1022.49991,0 281.1875,0.1386 51.125,0.2519 -511.25,0.2519 -562.37491,0 -792.43741,-0.1133 -511.24991,-0.2519 z m -333.69596,-16.3978 c -68.88394,-7.1935 -128.81746,-55.9264 -150.61461,-122.4672 -7.41581,-22.6385 -7.81388,-26.5006 -8.20803,-79.635 l -0.35421,-47.75005 h 111.02877 111.02878 l 0.28263,83.75005 0.28263,83.75 3.19674,9.1479 c 9.17246,26.2483 28.00792,43.9546 54.89293,51.602 l 7.91033,2.2501 270.75,0.266 270.75,0.266 v 9.984 9.984 l -331.25,-0.1329 c -183.14662,-0.073 -335.02623,-0.5272 -339.69596,-1.0149 z m 703.94596,-15.8522 v -17 h 142.99991 143 v 17 17 h -143 -142.99991 z m 297.44131,15.708 c -0.2726,-0.7106 -0.371,-8.2481 -0.2186,-16.75 l 0.2772,-15.458 262,-0.5 262,-0.5 4.5,-2.2239 c 6.7686,-3.3451 11.2398,-7.4739 14.5336,-13.4205 l 2.9664,-5.3556 0.5,-30 0.5,-30 134.8367,-0.5 134.8367,-0.5 2.4166,-2.8096 2.4166,-2.8096 -0.2533,-445.91776 -0.2533,-445.91766 -2.7726,-2.77271 -2.7726,-2.77272 -134.3916,-0.26069 -134.3916,-0.26069 -0.377,-21.23931 c -0.3376,-19.02446 -0.6165,-21.91714 -2.6737,-27.73931 -6.2395,-17.65802 -18.8421,-30.56463 -36.9244,-37.81495 l -6.6965,-2.68505 -58.5,-0.5 -58.5,-0.5 -0.26,-46.249999 -0.26,-46.2500005 164.26,0.004 c 178.6777,0.004 172.5509,-0.17508 190.9316,5.5922905 61.7458,19.37417 111.3243,86.683819 117.8438,159.989259 0.7331,8.24325 0.971,159.81619 0.7721,491.91442 l -0.2875,479.99998 -2.2088,7.749 c -6.4483,22.6217 -20.4932,39.7872 -40.6043,49.6261 -18.3224,8.9638 24.9076,8.1249 -418.6657,8.1249 -321.1751,0 -394.1757,-0.239 -394.5798,-1.292 z m -876.94131,-23.3388 c -3.85,-0.8072 -11.5,-3.6653 -17,-6.3513 -21.85266,-10.6721 -36.79201,-30.5478 -40.97033,-54.5081 -1.2853,-7.3704 -1.52967,-21.2967 -1.52967,-87.1725 v -78.40085 l 11.75,0.2818 11.75,0.2817 0.5,75.50005 0.5,75.5 2.72441,8 c 3.77508,11.0852 9.00463,19.5919 17.64419,28.7013 11.02317,11.6225 22.27126,18.1556 37.6314,21.8569 7.79312,1.8779 14.66549,1.928 265.75,1.9348 l 257.75,0.01 v 8 8 l -269.75,-0.082 c -233.07551,-0.071 -270.7017,-0.2811 -276.75,-1.5493 z M 12.53302,208.77045 c -0.32007,-0.83407 -0.3709,-15.79835 -0.11296,-33.25395 0.4054,-27.43519 0.76474,-33.1968 2.65087,-42.50293 6.30161,-31.09198 20.13249,-56.859319 42.55573,-79.282559 19.81947,-19.81947 39.88287,-31.69303 66.81497,-39.54123 21.65982,-6.3118305 -1.71682,-5.9589405 375.73306,-5.6719305 l 343.5,0.2612 0.26009,45.7500005 0.26009,45.749999 H 732.68478 621.17469 v -22.021989 -22.022 l -150.25,0.272 -150.25,0.27199 -7,2.34982 c -24.65121,8.27515 -42.46075,25.40847 -50.88846,48.956269 l -3.11154,8.69391 -0.5,46.5 -0.5,46.5 -122.77987,0.25395 C 26.93066,210.25838 13.04947,210.1163 12.53302,208.77045 Z M 242.84285,0.52906052 c 136.49249,-0.13969 360.14249,-0.13969 497,0 136.85751,0.13968 25.18184,0.25397 -248.16816,0.25397 -273.35,0 -385.32433,-0.11428 -248.83184,-0.25397 z m 1425.58175,2e-5 c 68.0625,-0.14183 179.4375,-0.14183 247.5,0 68.0625,0.14184 12.375,0.25788 -123.75,0.25788 -136.125,0 -191.8125,-0.11604 -123.75,-0.25788 z"
       style="fill:#000000" />
  </g>
</svg>
