<?xml version="1.0" encoding="UTF-8" standalone="no"?>
<svg
   xmlns:dc="http://purl.org/dc/elements/1.1/"
   xmlns:cc="http://creativecommons.org/ns#"
   xmlns:rdf="http://www.w3.org/1999/02/22-rdf-syntax-ns#"
   xmlns:svg="http://www.w3.org/2000/svg"
   xmlns="http://www.w3.org/2000/svg"
   xmlns:sodipodi="http://sodipodi.sourceforge.net/DTD/sodipodi-0.dtd"
   xmlns:inkscape="http://www.inkscape.org/namespaces/inkscape"
   inkscape:version="1.0 (4035a4fb49, 2020-05-01)"
   sodipodi:docname="TopLeftBorder.svg"
   viewBox="0 0 2044 1227"
   height="1227"
   width="2044"
   id="svg30"
   version="1.1">
  <metadata
     id="metadata36">
    <rdf:RDF>
      <cc:Work
         rdf:about="">
        <dc:format>image/svg+xml</dc:format>
        <dc:type
           rdf:resource="http://purl.org/dc/dcmitype/StillImage" />
        <dc:title></dc:title>
      </cc:Work>
    </rdf:RDF>
  </metadata>
  <defs
     id="defs34" />
  <sodipodi:namedview
     inkscape:current-layer="g38"
     inkscape:window-maximized="1"
     inkscape:window-y="-8"
     inkscape:window-x="-8"
     inkscape:cy="458.58829"
     inkscape:cx="991.13054"
     inkscape:zoom="0.51810176"
     showgrid="false"
     id="namedview32"
     inkscape:window-height="1089"
     inkscape:window-width="2048"
     inkscape:pageshadow="2"
     inkscape:pageopacity="0"
     guidetolerance="10"
     gridtolerance="10"
     objecttolerance="10"
     borderopacity="1"
     bordercolor="#666666"
     pagecolor="#ffffff" />
  <g
     id="g38"
     inkscape:label="Image"
     inkscape:groupmode="layer">
    <path
       sodipodi:nodetypes="sssssscccccccccsscccssssss"
       id="path58"
       d="m 12.53302,208.77045 c -0.32007,-0.83407 -0.3709,-15.79835 -0.11296,-33.25395 0.4054,-27.43519 0.76474,-33.1968 2.65087,-42.50293 6.30161,-31.09198 20.13249,-56.859319 42.55573,-79.282559 19.81947,-19.81947 39.88287,-31.69303 66.81497,-39.54123 21.65982,-6.3118305 -1.71682,-5.9589405 375.73306,-5.6719305 l 343.5,0.2612 0.26009,45.7500005 0.26009,45.749999 H 732.68478 621.17469 v -22.021989 -22.022 l -150.25,0.272 -150.25,0.27199 -7,2.34982 c -24.65121,8.27515 -42.46075,25.40847 -50.88846,48.956269 l -3.11154,8.69391 -0.5,46.5 -0.5,46.5 -122.77987,0.25395 C 26.93066,210.25838 13.04947,210.1163 12.53302,208.77045 Z M 242.84285,0.52906052 c 136.49249,-0.13969 360.14249,-0.13969 497,0 136.85751,0.13968 25.18184,0.25397 -248.16816,0.25397 -273.35,0 -385.32433,-0.11428 -248.83184,-0.25397 z"
       style="fill: rgb(69, 169, 177)" />
  </g>
</svg>
