<?xml version="1.0" encoding="UTF-8" standalone="no"?>
<svg
   xmlns:dc="http://purl.org/dc/elements/1.1/"
   xmlns:cc="http://creativecommons.org/ns#"
   xmlns:rdf="http://www.w3.org/1999/02/22-rdf-syntax-ns#"
   xmlns:svg="http://www.w3.org/2000/svg"
   xmlns="http://www.w3.org/2000/svg"
   xmlns:sodipodi="http://sodipodi.sourceforge.net/DTD/sodipodi-0.dtd"
   xmlns:inkscape="http://www.inkscape.org/namespaces/inkscape"
   sodipodi:docname="Dimmer.svg"
   inkscape:version="1.0 (4035a4fb49, 2020-05-01)"
   id="svg1235"
   version="1.1"
   viewBox="0 0 37.412796 89.843887"
   height="89.843887mm"
   width="37.412796mm">
  <defs
     id="defs1229">
    <linearGradient
       gradientTransform="matrix(0.26458333,0,0,0.26458333,-26.589303,47.697193)"
       id="linear-gradient"
       x1="536.91998"
       y1="335.16"
       x2="536.91998"
       y2="149.64"
       gradientUnits="userSpaceOnUse">
      <stop
         offset="0"
         stop-color="#797048"
         id="stop593" />
      <stop
         offset="1"
         stop-color="#f2e090"
         id="stop595" />
    </linearGradient>
  </defs>
  <sodipodi:namedview
     inkscape:window-maximized="1"
     inkscape:window-y="-8"
     inkscape:window-x="-8"
     inkscape:window-height="1089"
     inkscape:window-width="2048"
     showgrid="false"
     inkscape:document-rotation="0"
     inkscape:current-layer="layer1"
     inkscape:document-units="mm"
     inkscape:cy="164.73477"
     inkscape:cx="36.287637"
     inkscape:zoom="2.2078533"
     inkscape:pageshadow="2"
     inkscape:pageopacity="0.0"
     borderopacity="1.0"
     bordercolor="#666666"
     pagecolor="#ffffff"
     id="base" />
  <metadata
     id="metadata1232">
    <rdf:RDF>
      <cc:Work
         rdf:about="">
        <dc:format>image/svg+xml</dc:format>
        <dc:type
           rdf:resource="http://purl.org/dc/dcmitype/StillImage" />
        <dc:title></dc:title>
      </cc:Work>
    </rdf:RDF>
  </metadata>
  <g
     transform="translate(-107.64104,-75.759575)"
     id="layer1"
     inkscape:groupmode="layer"
     inkscape:label="Layer 1">
    <path
       style="fill:#f2e090;stroke-width:0.264583"
       class="cls-53"
       d="M 142.50855,165.60346 V 84.823527 a 2.9104167,2.9104167 0 0 0 -2.91041,-2.910417 h -16.43327 v -5.611813 h 16.06814 a 5.8208333,5.8208333 0 0 1 5.82083,5.820834 v 83.481329 z"
       id="path1093" />
    <path
       style="fill:#b6a86c;stroke-width:0.264583"
       class="cls-54"
       d="m 109.2028,147.55623 h 12.56507 v 1.72244 a 6.2812083,6.2812083 0 0 1 -6.27592,6.28121 v 0 a 6.2812083,6.2812083 0 0 1 -6.28121,-6.28121 z"
       id="path1095" />
    <path
       style="fill:#b6a86c;stroke-width:0.264583"
       class="cls-54"
       d="M 121.76787,146.34973 H 109.2028 v -1.72243 a 6.2812083,6.2812083 0 0 1 6.28915,-6.28121 v 0 a 6.2812083,6.2812083 0 0 1 6.28385,6.28121 z"
       id="path1097" />
    <path
       style="fill:#f2e090;stroke-width:0.264583"
       class="cls-53"
       d="M 138.52922,100.33869 H 125.96416 V 89.702441 a 2.38125,2.38125 0 0 1 2.38125,-2.38125 h 7.80256 a 2.38125,2.38125 0 0 1 2.38125,2.38125 z"
       id="path1099" />
    <rect
       style="fill:#b6a86c;stroke-width:0.264583"
       class="cls-54"
       x="125.96416"
       y="101.09276"
       width="12.565063"
       height="13.009562"
       id="rect1101" />
    <rect
       style="fill:#b6a86c;stroke-width:0.264583"
       class="cls-54"
       x="125.96416"
       y="114.89607"
       width="12.565063"
       height="13.009562"
       id="rect1107" />
    <path
       style="fill:#b6a86c;stroke-width:0.264583"
       class="cls-54"
       d="m 136.14797,155.55988 h -7.80256 a 2.38125,2.38125 0 0 1 -2.38125,-2.38125 v -10.62831 h 12.56506 v 10.62831 a 2.38125,2.38125 0 0 1 -2.38125,2.38125 z"
       id="path1111" />
    <rect
       style="fill:#b6a86c;stroke-width:0.264583"
       class="cls-54"
       x="125.96416"
       y="128.69939"
       width="12.565063"
       height="13.009562"
       id="rect1113" />
    <path
       style="fill:#f2e090;stroke-width:0.264583"
       class="cls-53"
       d="m 113.2668,81.91311 h -1.51606 a 2.8045833,2.8045833 0 0 1 -2.80458,-2.804583 v 0 a 2.8045833,2.8045833 0 0 1 2.80458,-2.80723 h 1.51606 z"
       id="path1117" />
    <path
       class="cls-56"
       d="m 109.18693,135.82461 h 12.56506 v 0.55033 h -12.56506 z m 0,-0.42069 h 12.56506 v -0.54769 h -12.56506 z m 0,-0.96837 h 12.56506 v -0.55034 h -12.56506 z m 0,-0.97102 h 12.56506 v -0.55034 h -12.56506 z m 0,-0.98161 h 12.56506 v -0.55033 h -12.56506 z m 0,-0.97102 h 12.56506 v -0.55033 h -12.56506 z m 0,-0.97102 h 12.56506 v -0.55827 h -12.56506 z m 0,-0.97102 h 12.56506 v -0.55033 h -12.56506 z m 0,-0.97102 h 12.56506 v -0.54769 h -12.56506 z m 0,-0.96838 h 12.56506 v -0.55827 h -12.56506 z m 0,-0.97102 h 12.56506 v -0.55033 h -12.56506 z m 0,-0.97102 h 12.56506 v -0.55033 h -12.56506 z m 0,-0.9816 h 12.56506 v -0.54504 h -12.56506 z m 0,-0.97102 h 12.56506 v -0.55034 h -12.56506 z m 0,-0.97102 h 12.56506 v -0.55034 h -12.56506 z m 0,-0.97102 h 12.56506 v -0.5424 h -12.56506 z m 0,-0.92605 h 12.56506 v -0.55033 h -12.56506 z m 0,-0.97102 h 12.56506 v -0.55033 h -12.56506 z m 0,-0.97102 h 12.56506 v -0.55033 h -12.56506 z m 0,-0.97102 h 12.56506 v -0.54769 h -12.56506 z m 0,-0.9816 h 12.56506 v -0.55034 h -12.56506 z m 0,-0.97102 h 12.56506 v -0.54769 h -12.56506 z m 0,-0.96838 h 12.56506 v -0.55033 h -12.56506 z m 0,-0.97102 h 12.56506 v -0.55033 h -12.56506 z m 0,-0.97102 h 12.56506 v -0.55033 h -12.56506 z m 0,-0.97102 h 12.56506 v -0.55033 h -12.56506 z m 0,-0.97102 h 12.56506 v -0.54769 h -12.56506 z m 0,-0.96838 h 12.56506 v -0.55033 h -12.56506 z m 0,-0.98425 h 12.56506 v -0.54768 h -12.56506 z m 0,-0.96837 h 12.56506 v -0.55033 h -12.56506 z m 0,-0.97102 h 12.56506 v -0.55827 h -12.56506 z m 0,-0.97102 h 12.56506 v -0.55034 h -12.56506 z m 0,-0.99748 h 12.56506 v -0.55034 h -12.56506 z m 0,-0.97102 h 12.56506 v -0.54769 h -12.56506 z m 0,-0.96838 h 12.56506 v -0.55033 h -12.56506 z m 0,-0.92869 h 12.56506 v -0.55033 h -12.56506 z m 0,-0.97102 h 12.56506 v -0.55033 h -12.56506 z m 0,-0.97102 h 12.56506 v -0.547686 h -12.56506 z m 0,-0.968373 h 12.56506 v -0.550333 h -12.56506 z m 0,-0.98425 h 12.56506 v -0.558271 h -12.56506 z m 0,-0.968375 h 12.56506 v -0.550333 h -12.56506 z m 0,-0.971021 h 12.56506 v -0.550333 h -12.56506 z m 0,-0.971021 h 12.56506 v -0.558271 h -12.56506 z m 0,-0.97102 h 12.56506 v -0.550334 h -12.56506 z m 0,-0.971021 h 12.56506 v -0.547688 h -12.56506 z m 0,-0.968375 h 12.56506 v -0.558271 h -12.56506 z m 0,-0.971021 h 12.56506 v -0.550334 h -12.56506 z m 0,-0.981604 h 12.56506 v -0.550334 h -12.56506 z m 0,-0.971021 h 12.56506 v -0.545042 h -12.56506 z m 0,-0.971021 h 12.56506 v -0.550333 h -12.56506 z m 0,-0.971021 h 12.56506 v -0.550333 h -12.56506 z"
       id="path1119"
       style="fill:url(#linear-gradient);stroke-width:0.264583" />
    <rect
       style="fill:#f2e090;stroke-width:0.264583"
       class="cls-53"
       x="-121.75465"
       y="-165.48969"
       width="12.565063"
       height="4.6222706"
       transform="scale(-1)"
       id="rect1121" />
    <rect
       style="fill:#f2e090;stroke-width:0.264583"
       class="cls-53"
       x="-138.48689"
       y="-165.50027"
       width="12.565063"
       height="4.6222706"
       transform="scale(-1)"
       id="rect1133" />
  </g>
</svg>
